transcript
# //  Questa Sim-64
# //  Version 2021.2_1 linux_x86_64 May 15 2021
# //
# //  Copyright 1991-2021 Mentor Graphics Corporation
# //  All Rights Reserved.
# //
# //  QuestaSim and its associated documentation contain trade
# //  secrets and commercial or financial information that are the property of
# //  Mentor Graphics Corporation and are privileged, confidential,
# //  and exempt from disclosure under the Freedom of Information Act,
# //  5 U.S.C. Section 552. Furthermore, this information
# //  is prohibited from disclosure under the Trade Secrets Act,
# //  18 U.S.C. Section 1905.
# //
# vsim -voptargs="+acc" top_testbench 
# Start time: 17:49:50 on Nov 26,2025
# ** Note: (vsim-3813) Design is being optimized due to module recompilation...
# Loading sv_std.std
# Loading work.top_testbench_sv_unit(fast)
# Loading work.top_testbench(fast)
# Loading work.dual_port(fast__2)
# Loading work.dual_port_memory_top_module2(fast)
# Loading work.hamming_encoder(fast)
# Loading work.hamming_decoder(fast)
# Loading work.dual_port_multi_bank_memory(fast)
# Loading work.decoder(fast)
# Loading work.dual_port_memory_latency(fast)
# Loading work.dual_port(fast)
# ** Warning: (vsim-3015) [PCDPC] - Port size (8) does not match connection size (12) for port 'i_din_a'. The port definition is at: dual_port_memory_top_module2.sv(42).
#    Time: 0 ns  Iteration: 0  Instance: /top_testbench/dut File: top_testbench.sv Line: 20
# ** Warning: (vsim-3015) [PCDPC] - Port size (8) does not match connection size (12) for port 'i_din_b'. The port definition is at: dual_port_memory_top_module2.sv(42).
#    Time: 0 ns  Iteration: 0  Instance: /top_testbench/dut File: top_testbench.sv Line: 20
# ** Warning: (vsim-3015) [PCDPC] - Port size (5) does not match connection size (10) for port 'i_addr_a'. The port definition is at: dual_port_memory_top_module2.sv(43).
#    Time: 0 ns  Iteration: 0  Instance: /top_testbench/dut File: top_testbench.sv Line: 20
# ** Warning: (vsim-3015) [PCDPC] - Port size (5) does not match connection size (10) for port 'i_addr_b'. The port definition is at: dual_port_memory_top_module2.sv(43).
#    Time: 0 ns  Iteration: 0  Instance: /top_testbench/dut File: top_testbench.sv Line: 20
# ** Warning: (vsim-3015) [PCDPC] - Port size (8) does not match connection size (12) for port 'o_dout_a1'. The port definition is at: dual_port_memory_top_module2.sv(44).
#    Time: 0 ns  Iteration: 0  Instance: /top_testbench/dut File: top_testbench.sv Line: 20
# ** Warning: (vsim-3015) [PCDPC] - Port size (8) does not match connection size (12) for port 'o_dout_b1'. The port definition is at: dual_port_memory_top_module2.sv(44).
#    Time: 0 ns  Iteration: 0  Instance: /top_testbench/dut File: top_testbench.sv Line: 20
add wave -position insertpoint  \
sim:/top_testbench/dut/dut_a/data_in \
sim:/top_testbench/dut/dut_a/data_out
restart
# ** Note: (vsim-12125) Error and warning message counts have been reset to '0' because of 'restart'.
# ** Note: (vsim-8009) Loading existing optimized design _opt
# Loading work.top_testbench_sv_unit(fast)
# Loading work.top_testbench(fast)
# Loading work.dual_port(fast__2)
# Loading work.dual_port_memory_top_module2(fast)
# Loading work.hamming_encoder(fast)
# Loading work.hamming_decoder(fast)
# Loading work.dual_port_multi_bank_memory(fast)
# Loading work.decoder(fast)
# Loading work.dual_port_memory_latency(fast)
# Loading work.dual_port(fast)
# ** Warning: (vsim-3015) [PCDPC] - Port size (8) does not match connection size (12) for port 'i_din_a'. The port definition is at: dual_port_memory_top_module2.sv(42).
#    Time: 0 ns  Iteration: 0  Instance: /top_testbench/dut File: top_testbench.sv Line: 20
# ** Warning: (vsim-3015) [PCDPC] - Port size (8) does not match connection size (12) for port 'i_din_b'. The port definition is at: dual_port_memory_top_module2.sv(42).
#    Time: 0 ns  Iteration: 0  Instance: /top_testbench/dut File: top_testbench.sv Line: 20
# ** Warning: (vsim-3015) [PCDPC] - Port size (5) does not match connection size (10) for port 'i_addr_a'. The port definition is at: dual_port_memory_top_module2.sv(43).
#    Time: 0 ns  Iteration: 0  Instance: /top_testbench/dut File: top_testbench.sv Line: 20
# ** Warning: (vsim-3015) [PCDPC] - Port size (5) does not match connection size (10) for port 'i_addr_b'. The port definition is at: dual_port_memory_top_module2.sv(43).
#    Time: 0 ns  Iteration: 0  Instance: /top_testbench/dut File: top_testbench.sv Line: 20
# ** Warning: (vsim-3015) [PCDPC] - Port size (8) does not match connection size (12) for port 'o_dout_a1'. The port definition is at: dual_port_memory_top_module2.sv(44).
#    Time: 0 ns  Iteration: 0  Instance: /top_testbench/dut File: top_testbench.sv Line: 20
# ** Warning: (vsim-3015) [PCDPC] - Port size (8) does not match connection size (12) for port 'o_dout_b1'. The port definition is at: dual_port_memory_top_module2.sv(44).
#    Time: 0 ns  Iteration: 0  Instance: /top_testbench/dut File: top_testbench.sv Line: 20
run -all
# i_en_a = 1 	 i_en_b = 1 	 i_we_a = 1 	 i_we_b = 1 	 i_din_a = 67 	 i_din_b = 245 	 i_addr_a = 497 	 i_addr_b = 662
# i_en_a = 1 	 i_en_b = 1 	 i_we_a = 1 	 i_we_b = 1 	 i_din_a = 15 	 i_din_b = 252 	 i_addr_a = 419 	 i_addr_b = 558
# [GEN] number of transactions           2
# i_en_a = 0 	 i_en_b = 0 	 i_we_a = 0 	 i_we_b = 0 	 i_din_a = 0 	 i_din_b = 0 	 i_addr_a = 0 	 i_addr_b = 0
#                   40[SCO] addr_a = 0 	 din_a = 0 	 dout_a = 0 	  error_a = 0 	 error_a = 0
# [REF][A] READ  addr=0 bank=0 data=0x0 err=0 time=40
# [REF][B] READ  addr=0 bank=0 data=0x0 err=0 time=40
# i_en_a = 1 	 i_en_b = 1 	 i_we_a = 1 	 i_we_b = 1 	 i_din_a = 67 	 i_din_b = 245 	 i_addr_a = 497 	 i_addr_b = 662
# [REF][A] WRITE addr=497 bank=1 enc=0xd43 time=80
# [REF][B] WRITE addr=662 bank=2 enc=0x1f5 time=80
# i_en_a = 1 	 i_en_b = 1 	 i_we_a = 1 	 i_we_b = 1 	 i_din_a = 15 	 i_din_b = 252 	 i_addr_a = 419 	 i_addr_b = 558
# [REF][A] WRITE addr=419 bank=3 enc=0x70f time=120
# [REF][B] WRITE addr=558 bank=2 enc=0x5fc time=120
# i_en_a = 1 	 i_en_b = 1 	 i_we_a = 1 	 i_we_b = 1 	 i_din_a = 15 	 i_din_b = 252 	 i_addr_a = 419 	 i_addr_b = 558
# [REF][A] WRITE addr=419 bank=3 enc=0x70f time=160
# [REF][B] WRITE addr=558 bank=2 enc=0x5fc time=160
# i_en_a = 1 	 i_en_b = 1 	 i_we_a = 1 	 i_we_b = 1 	 i_din_a = 15 	 i_din_b = 252 	 i_addr_a = 419 	 i_addr_b = 558
# [REF][A] WRITE addr=419 bank=3 enc=0x70f time=200
# [REF][B] WRITE addr=558 bank=2 enc=0x5fc time=200
# i_en_a = 1 	 i_en_b = 1 	 i_we_a = 1 	 i_we_b = 1 	 i_din_a = 15 	 i_din_b = 252 	 i_addr_a = 419 	 i_addr_b = 558
# [REF][A] WRITE addr=419 bank=3 enc=0x70f time=240
# [REF][B] WRITE addr=558 bank=2 enc=0x5fc time=240
# i_en_a = 1 	 i_en_b = 1 	 i_we_a = 1 	 i_we_b = 1 	 i_din_a = 15 	 i_din_b = 252 	 i_addr_a = 419 	 i_addr_b = 558
# [REF][A] WRITE addr=419 bank=3 enc=0x70f time=280
# [REF][B] WRITE addr=558 bank=2 enc=0x5fc time=280
# i_en_a = 1 	 i_en_b = 1 	 i_we_a = 1 	 i_we_b = 1 	 i_din_a = 15 	 i_din_b = 252 	 i_addr_a = 419 	 i_addr_b = 558
# [REF][A] WRITE addr=419 bank=3 enc=0x70f time=320
# [REF][B] WRITE addr=558 bank=2 enc=0x5fc time=320
# i_en_a = 1 	 i_en_b = 1 	 i_we_a = 1 	 i_we_b = 1 	 i_din_a = 15 	 i_din_b = 252 	 i_addr_a = 419 	 i_addr_b = 558
# [REF][A] WRITE addr=419 bank=3 enc=0x70f time=360
# [REF][B] WRITE addr=558 bank=2 enc=0x5fc time=360
# i_en_a = 1 	 i_en_b = 1 	 i_we_a = 1 	 i_we_b = 1 	 i_din_a = 15 	 i_din_b = 252 	 i_addr_a = 419 	 i_addr_b = 558
# [REF][A] WRITE addr=419 bank=3 enc=0x70f time=400
# [REF][B] WRITE addr=558 bank=2 enc=0x5fc time=400
# i_en_a = 1 	 i_en_b = 1 	 i_we_a = 1 	 i_we_b = 1 	 i_din_a = 15 	 i_din_b = 252 	 i_addr_a = 419 	 i_addr_b = 558
# [REF][A] WRITE addr=419 bank=3 enc=0x70f time=440
# [REF][B] WRITE addr=558 bank=2 enc=0x5fc time=440
# i_en_a = 1 	 i_en_b = 1 	 i_we_a = 1 	 i_we_b = 1 	 i_din_a = 15 	 i_din_b = 252 	 i_addr_a = 419 	 i_addr_b = 558
# [REF][A] WRITE addr=419 bank=3 enc=0x70f time=480
# [REF][B] WRITE addr=558 bank=2 enc=0x5fc time=480
# i_en_a = 1 	 i_en_b = 1 	 i_we_a = 1 	 i_we_b = 1 	 i_din_a = 15 	 i_din_b = 252 	 i_addr_a = 419 	 i_addr_b = 558
# [REF][A] WRITE addr=419 bank=3 enc=0x70f time=520
# [REF][B] WRITE addr=558 bank=2 enc=0x5fc time=520
# i_en_a = 1 	 i_en_b = 1 	 i_we_a = 1 	 i_we_b = 1 	 i_din_a = 15 	 i_din_b = 252 	 i_addr_a = 419 	 i_addr_b = 558
# [REF][A] WRITE addr=419 bank=3 enc=0x70f time=560
# [REF][B] WRITE addr=558 bank=2 enc=0x5fc time=560
# i_en_a = 1 	 i_en_b = 1 	 i_we_a = 1 	 i_we_b = 1 	 i_din_a = 15 	 i_din_b = 252 	 i_addr_a = 419 	 i_addr_b = 558
# [REF][A] WRITE addr=419 bank=3 enc=0x70f time=600
# [REF][B] WRITE addr=558 bank=2 enc=0x5fc time=600
# i_en_a = 1 	 i_en_b = 1 	 i_we_a = 1 	 i_we_b = 1 	 i_din_a = 15 	 i_din_b = 252 	 i_addr_a = 419 	 i_addr_b = 558
# [REF][A] WRITE addr=419 bank=3 enc=0x70f time=640
# [REF][B] WRITE addr=558 bank=2 enc=0x5fc time=640
# i_en_a = 1 	 i_en_b = 1 	 i_we_a = 1 	 i_we_b = 1 	 i_din_a = 15 	 i_din_b = 252 	 i_addr_a = 419 	 i_addr_b = 558
# [REF][A] WRITE addr=419 bank=3 enc=0x70f time=680
# [REF][B] WRITE addr=558 bank=2 enc=0x5fc time=680
# i_en_a = 1 	 i_en_b = 1 	 i_we_a = 1 	 i_we_b = 1 	 i_din_a = 15 	 i_din_b = 252 	 i_addr_a = 419 	 i_addr_b = 558
# [REF][A] WRITE addr=419 bank=3 enc=0x70f time=720
# [REF][B] WRITE addr=558 bank=2 enc=0x5fc time=720
# i_en_a = 1 	 i_en_b = 1 	 i_we_a = 1 	 i_we_b = 1 	 i_din_a = 15 	 i_din_b = 252 	 i_addr_a = 419 	 i_addr_b = 558
# [REF][A] WRITE addr=419 bank=3 enc=0x70f time=760
# [REF][B] WRITE addr=558 bank=2 enc=0x5fc time=760
# i_en_a = 1 	 i_en_b = 1 	 i_we_a = 1 	 i_we_b = 1 	 i_din_a = 15 	 i_din_b = 252 	 i_addr_a = 419 	 i_addr_b = 558
# [REF][A] WRITE addr=419 bank=3 enc=0x70f time=800
# [REF][B] WRITE addr=558 bank=2 enc=0x5fc time=800
# i_en_a = 1 	 i_en_b = 1 	 i_we_a = 1 	 i_we_b = 1 	 i_din_a = 15 	 i_din_b = 252 	 i_addr_a = 419 	 i_addr_b = 558
# [REF][A] WRITE addr=419 bank=3 enc=0x70f time=840
# [REF][B] WRITE addr=558 bank=2 enc=0x5fc time=840
# i_en_a = 1 	 i_en_b = 1 	 i_we_a = 1 	 i_we_b = 1 	 i_din_a = 15 	 i_din_b = 252 	 i_addr_a = 419 	 i_addr_b = 558
# [REF][A] WRITE addr=419 bank=3 enc=0x70f time=880
# [REF][B] WRITE addr=558 bank=2 enc=0x5fc time=880
# i_en_a = 1 	 i_en_b = 1 	 i_we_a = 1 	 i_we_b = 1 	 i_din_a = 15 	 i_din_b = 252 	 i_addr_a = 419 	 i_addr_b = 558
# [REF][A] WRITE addr=419 bank=3 enc=0x70f time=920
# [REF][B] WRITE addr=558 bank=2 enc=0x5fc time=920
# i_en_a = 1 	 i_en_b = 1 	 i_we_a = 1 	 i_we_b = 1 	 i_din_a = 15 	 i_din_b = 252 	 i_addr_a = 419 	 i_addr_b = 558
# [REF][A] WRITE addr=419 bank=3 enc=0x70f time=960
# [REF][B] WRITE addr=558 bank=2 enc=0x5fc time=960
# i_en_a = 1 	 i_en_b = 1 	 i_we_a = 1 	 i_we_b = 1 	 i_din_a = 15 	 i_din_b = 252 	 i_addr_a = 419 	 i_addr_b = 558
# [REF][A] WRITE addr=419 bank=3 enc=0x70f time=1000
# [REF][B] WRITE addr=558 bank=2 enc=0x5fc time=1000
# i_en_a = 1 	 i_en_b = 1 	 i_we_a = 1 	 i_we_b = 1 	 i_din_a = 15 	 i_din_b = 252 	 i_addr_a = 419 	 i_addr_b = 558
# [REF][A] WRITE addr=419 bank=3 enc=0x70f time=1040
# [REF][B] WRITE addr=558 bank=2 enc=0x5fc time=1040
# i_en_a = 1 	 i_en_b = 1 	 i_we_a = 1 	 i_we_b = 1 	 i_din_a = 15 	 i_din_b = 252 	 i_addr_a = 419 	 i_addr_b = 558
# [REF][A] WRITE addr=419 bank=3 enc=0x70f time=1080
# [REF][B] WRITE addr=558 bank=2 enc=0x5fc time=1080
# i_en_a = 1 	 i_en_b = 1 	 i_we_a = 1 	 i_we_b = 1 	 i_din_a = 15 	 i_din_b = 252 	 i_addr_a = 419 	 i_addr_b = 558
# [REF][A] WRITE addr=419 bank=3 enc=0x70f time=1120
# [REF][B] WRITE addr=558 bank=2 enc=0x5fc time=1120
# i_en_a = 1 	 i_en_b = 1 	 i_we_a = 1 	 i_we_b = 1 	 i_din_a = 15 	 i_din_b = 252 	 i_addr_a = 419 	 i_addr_b = 558
# [REF][A] WRITE addr=419 bank=3 enc=0x70f time=1160
# [REF][B] WRITE addr=558 bank=2 enc=0x5fc time=1160
# i_en_a = 1 	 i_en_b = 1 	 i_we_a = 1 	 i_we_b = 1 	 i_din_a = 15 	 i_din_b = 252 	 i_addr_a = 419 	 i_addr_b = 558
# [REF][A] WRITE addr=419 bank=3 enc=0x70f time=1200
# [REF][B] WRITE addr=558 bank=2 enc=0x5fc time=1200
# i_en_a = 1 	 i_en_b = 1 	 i_we_a = 1 	 i_we_b = 1 	 i_din_a = 15 	 i_din_b = 252 	 i_addr_a = 419 	 i_addr_b = 558
# [REF][A] WRITE addr=419 bank=3 enc=0x70f time=1240
# [REF][B] WRITE addr=558 bank=2 enc=0x5fc time=1240
# i_en_a = 1 	 i_en_b = 1 	 i_we_a = 1 	 i_we_b = 1 	 i_din_a = 15 	 i_din_b = 252 	 i_addr_a = 419 	 i_addr_b = 558
# [REF][A] WRITE addr=419 bank=3 enc=0x70f time=1280
# [REF][B] WRITE addr=558 bank=2 enc=0x5fc time=1280
# i_en_a = 1 	 i_en_b = 1 	 i_we_a = 1 	 i_we_b = 1 	 i_din_a = 15 	 i_din_b = 252 	 i_addr_a = 419 	 i_addr_b = 558
# [REF][A] WRITE addr=419 bank=3 enc=0x70f time=1320
# [REF][B] WRITE addr=558 bank=2 enc=0x5fc time=1320
# i_en_a = 1 	 i_en_b = 1 	 i_we_a = 1 	 i_we_b = 1 	 i_din_a = 15 	 i_din_b = 252 	 i_addr_a = 419 	 i_addr_b = 558
# [REF][A] WRITE addr=419 bank=3 enc=0x70f time=1360
# [REF][B] WRITE addr=558 bank=2 enc=0x5fc time=1360
# i_en_a = 1 	 i_en_b = 1 	 i_we_a = 1 	 i_we_b = 1 	 i_din_a = 15 	 i_din_b = 252 	 i_addr_a = 419 	 i_addr_b = 558
# [REF][A] WRITE addr=419 bank=3 enc=0x70f time=1400
# [REF][B] WRITE addr=558 bank=2 enc=0x5fc time=1400
# i_en_a = 1 	 i_en_b = 1 	 i_we_a = 1 	 i_we_b = 1 	 i_din_a = 15 	 i_din_b = 252 	 i_addr_a = 419 	 i_addr_b = 558
# [REF][A] WRITE addr=419 bank=3 enc=0x70f time=1440
# [REF][B] WRITE addr=558 bank=2 enc=0x5fc time=1440
# i_en_a = 1 	 i_en_b = 1 	 i_we_a = 1 	 i_we_b = 1 	 i_din_a = 15 	 i_din_b = 252 	 i_addr_a = 419 	 i_addr_b = 558
# [REF][A] WRITE addr=419 bank=3 enc=0x70f time=1480
# [REF][B] WRITE addr=558 bank=2 enc=0x5fc time=1480
# i_en_a = 1 	 i_en_b = 1 	 i_we_a = 1 	 i_we_b = 1 	 i_din_a = 15 	 i_din_b = 252 	 i_addr_a = 419 	 i_addr_b = 558
# [REF][A] WRITE addr=419 bank=3 enc=0x70f time=1520
# [REF][B] WRITE addr=558 bank=2 enc=0x5fc time=1520
# i_en_a = 1 	 i_en_b = 1 	 i_we_a = 1 	 i_we_b = 1 	 i_din_a = 15 	 i_din_b = 252 	 i_addr_a = 419 	 i_addr_b = 558
# [REF][A] WRITE addr=419 bank=3 enc=0x70f time=1560
# [REF][B] WRITE addr=558 bank=2 enc=0x5fc time=1560
# i_en_a = 1 	 i_en_b = 1 	 i_we_a = 1 	 i_we_b = 1 	 i_din_a = 15 	 i_din_b = 252 	 i_addr_a = 419 	 i_addr_b = 558
# [REF][A] WRITE addr=419 bank=3 enc=0x70f time=1600
# [REF][B] WRITE addr=558 bank=2 enc=0x5fc time=1600
# i_en_a = 1 	 i_en_b = 1 	 i_we_a = 1 	 i_we_b = 1 	 i_din_a = 15 	 i_din_b = 252 	 i_addr_a = 419 	 i_addr_b = 558
# [REF][A] WRITE addr=419 bank=3 enc=0x70f time=1640
# [REF][B] WRITE addr=558 bank=2 enc=0x5fc time=1640
# i_en_a = 1 	 i_en_b = 1 	 i_we_a = 1 	 i_we_b = 1 	 i_din_a = 15 	 i_din_b = 252 	 i_addr_a = 419 	 i_addr_b = 558
# [REF][A] WRITE addr=419 bank=3 enc=0x70f time=1680
# [REF][B] WRITE addr=558 bank=2 enc=0x5fc time=1680
# i_en_a = 1 	 i_en_b = 1 	 i_we_a = 1 	 i_we_b = 1 	 i_din_a = 15 	 i_din_b = 252 	 i_addr_a = 419 	 i_addr_b = 558
# [REF][A] WRITE addr=419 bank=3 enc=0x70f time=1720
# [REF][B] WRITE addr=558 bank=2 enc=0x5fc time=1720
# i_en_a = 1 	 i_en_b = 1 	 i_we_a = 1 	 i_we_b = 1 	 i_din_a = 15 	 i_din_b = 252 	 i_addr_a = 419 	 i_addr_b = 558
# [REF][A] WRITE addr=419 bank=3 enc=0x70f time=1760
# [REF][B] WRITE addr=558 bank=2 enc=0x5fc time=1760
# i_en_a = 1 	 i_en_b = 1 	 i_we_a = 1 	 i_we_b = 1 	 i_din_a = 15 	 i_din_b = 252 	 i_addr_a = 419 	 i_addr_b = 558
# [REF][A] WRITE addr=419 bank=3 enc=0x70f time=1800
# [REF][B] WRITE addr=558 bank=2 enc=0x5fc time=1800
# i_en_a = 1 	 i_en_b = 1 	 i_we_a = 1 	 i_we_b = 1 	 i_din_a = 15 	 i_din_b = 252 	 i_addr_a = 419 	 i_addr_b = 558
# [REF][A] WRITE addr=419 bank=3 enc=0x70f time=1840
# [REF][B] WRITE addr=558 bank=2 enc=0x5fc time=1840
# i_en_a = 1 	 i_en_b = 1 	 i_we_a = 1 	 i_we_b = 1 	 i_din_a = 15 	 i_din_b = 252 	 i_addr_a = 419 	 i_addr_b = 558
# [REF][A] WRITE addr=419 bank=3 enc=0x70f time=1880
# [REF][B] WRITE addr=558 bank=2 enc=0x5fc time=1880
# i_en_a = 1 	 i_en_b = 1 	 i_we_a = 1 	 i_we_b = 1 	 i_din_a = 15 	 i_din_b = 252 	 i_addr_a = 419 	 i_addr_b = 558
# [REF][A] WRITE addr=419 bank=3 enc=0x70f time=1920
# [REF][B] WRITE addr=558 bank=2 enc=0x5fc time=1920
# i_en_a = 1 	 i_en_b = 1 	 i_we_a = 1 	 i_we_b = 1 	 i_din_a = 15 	 i_din_b = 252 	 i_addr_a = 419 	 i_addr_b = 558
# [REF][A] WRITE addr=419 bank=3 enc=0x70f time=1960
# [REF][B] WRITE addr=558 bank=2 enc=0x5fc time=1960
# i_en_a = 1 	 i_en_b = 1 	 i_we_a = 1 	 i_we_b = 1 	 i_din_a = 15 	 i_din_b = 252 	 i_addr_a = 419 	 i_addr_b = 558
# [REF][A] WRITE addr=419 bank=3 enc=0x70f time=2000
# [REF][B] WRITE addr=558 bank=2 enc=0x5fc time=2000
# i_en_a = 1 	 i_en_b = 1 	 i_we_a = 1 	 i_we_b = 1 	 i_din_a = 15 	 i_din_b = 252 	 i_addr_a = 419 	 i_addr_b = 558
# [REF][A] WRITE addr=419 bank=3 enc=0x70f time=2040
# [REF][B] WRITE addr=558 bank=2 enc=0x5fc time=2040
# i_en_a = 1 	 i_en_b = 1 	 i_we_a = 1 	 i_we_b = 1 	 i_din_a = 15 	 i_din_b = 252 	 i_addr_a = 419 	 i_addr_b = 558
# [REF][A] WRITE addr=419 bank=3 enc=0x70f time=2080
# [REF][B] WRITE addr=558 bank=2 enc=0x5fc time=2080
# i_en_a = 1 	 i_en_b = 1 	 i_we_a = 1 	 i_we_b = 1 	 i_din_a = 15 	 i_din_b = 252 	 i_addr_a = 419 	 i_addr_b = 558
# [REF][A] WRITE addr=419 bank=3 enc=0x70f time=2120
# [REF][B] WRITE addr=558 bank=2 enc=0x5fc time=2120
# i_en_a = 1 	 i_en_b = 1 	 i_we_a = 1 	 i_we_b = 1 	 i_din_a = 15 	 i_din_b = 252 	 i_addr_a = 419 	 i_addr_b = 558
# [REF][A] WRITE addr=419 bank=3 enc=0x70f time=2160
# [REF][B] WRITE addr=558 bank=2 enc=0x5fc time=2160
# i_en_a = 1 	 i_en_b = 1 	 i_we_a = 1 	 i_we_b = 1 	 i_din_a = 15 	 i_din_b = 252 	 i_addr_a = 419 	 i_addr_b = 558
# [REF][A] WRITE addr=419 bank=3 enc=0x70f time=2200
# [REF][B] WRITE addr=558 bank=2 enc=0x5fc time=2200
# i_en_a = 1 	 i_en_b = 1 	 i_we_a = 1 	 i_we_b = 1 	 i_din_a = 15 	 i_din_b = 252 	 i_addr_a = 419 	 i_addr_b = 558
# [REF][A] WRITE addr=419 bank=3 enc=0x70f time=2240
# [REF][B] WRITE addr=558 bank=2 enc=0x5fc time=2240
# i_en_a = 1 	 i_en_b = 1 	 i_we_a = 1 	 i_we_b = 1 	 i_din_a = 15 	 i_din_b = 252 	 i_addr_a = 419 	 i_addr_b = 558
# [REF][A] WRITE addr=419 bank=3 enc=0x70f time=2280
# [REF][B] WRITE addr=558 bank=2 enc=0x5fc time=2280
# i_en_a = 1 	 i_en_b = 1 	 i_we_a = 1 	 i_we_b = 1 	 i_din_a = 15 	 i_din_b = 252 	 i_addr_a = 419 	 i_addr_b = 558
# [REF][A] WRITE addr=419 bank=3 enc=0x70f time=2320
# [REF][B] WRITE addr=558 bank=2 enc=0x5fc time=2320
# i_en_a = 1 	 i_en_b = 1 	 i_we_a = 1 	 i_we_b = 1 	 i_din_a = 15 	 i_din_b = 252 	 i_addr_a = 419 	 i_addr_b = 558
# [REF][A] WRITE addr=419 bank=3 enc=0x70f time=2360
# [REF][B] WRITE addr=558 bank=2 enc=0x5fc time=2360
# i_en_a = 1 	 i_en_b = 1 	 i_we_a = 1 	 i_we_b = 1 	 i_din_a = 15 	 i_din_b = 252 	 i_addr_a = 419 	 i_addr_b = 558
# [REF][A] WRITE addr=419 bank=3 enc=0x70f time=2400
# [REF][B] WRITE addr=558 bank=2 enc=0x5fc time=2400
# i_en_a = 1 	 i_en_b = 1 	 i_we_a = 1 	 i_we_b = 1 	 i_din_a = 15 	 i_din_b = 252 	 i_addr_a = 419 	 i_addr_b = 558
# [REF][A] WRITE addr=419 bank=3 enc=0x70f time=2440
# [REF][B] WRITE addr=558 bank=2 enc=0x5fc time=2440
# i_en_a = 1 	 i_en_b = 1 	 i_we_a = 1 	 i_we_b = 1 	 i_din_a = 15 	 i_din_b = 252 	 i_addr_a = 419 	 i_addr_b = 558
# [REF][A] WRITE addr=419 bank=3 enc=0x70f time=2480
# [REF][B] WRITE addr=558 bank=2 enc=0x5fc time=2480
# i_en_a = 1 	 i_en_b = 1 	 i_we_a = 1 	 i_we_b = 1 	 i_din_a = 15 	 i_din_b = 252 	 i_addr_a = 419 	 i_addr_b = 558
# [REF][A] WRITE addr=419 bank=3 enc=0x70f time=2520
# [REF][B] WRITE addr=558 bank=2 enc=0x5fc time=2520
# i_en_a = 1 	 i_en_b = 1 	 i_we_a = 1 	 i_we_b = 1 	 i_din_a = 15 	 i_din_b = 252 	 i_addr_a = 419 	 i_addr_b = 558
# [REF][A] WRITE addr=419 bank=3 enc=0x70f time=2560
# [REF][B] WRITE addr=558 bank=2 enc=0x5fc time=2560
# i_en_a = 1 	 i_en_b = 1 	 i_we_a = 1 	 i_we_b = 1 	 i_din_a = 15 	 i_din_b = 252 	 i_addr_a = 419 	 i_addr_b = 558
# [REF][A] WRITE addr=419 bank=3 enc=0x70f time=2600
# [REF][B] WRITE addr=558 bank=2 enc=0x5fc time=2600
# i_en_a = 1 	 i_en_b = 1 	 i_we_a = 1 	 i_we_b = 1 	 i_din_a = 15 	 i_din_b = 252 	 i_addr_a = 419 	 i_addr_b = 558
# [REF][A] WRITE addr=419 bank=3 enc=0x70f time=2640
# [REF][B] WRITE addr=558 bank=2 enc=0x5fc time=2640
# i_en_a = 1 	 i_en_b = 1 	 i_we_a = 1 	 i_we_b = 1 	 i_din_a = 15 	 i_din_b = 252 	 i_addr_a = 419 	 i_addr_b = 558
# [REF][A] WRITE addr=419 bank=3 enc=0x70f time=2680
# [REF][B] WRITE addr=558 bank=2 enc=0x5fc time=2680
# i_en_a = 1 	 i_en_b = 1 	 i_we_a = 1 	 i_we_b = 1 	 i_din_a = 15 	 i_din_b = 252 	 i_addr_a = 419 	 i_addr_b = 558
# [REF][A] WRITE addr=419 bank=3 enc=0x70f time=2720
# [REF][B] WRITE addr=558 bank=2 enc=0x5fc time=2720
# i_en_a = 1 	 i_en_b = 1 	 i_we_a = 1 	 i_we_b = 1 	 i_din_a = 15 	 i_din_b = 252 	 i_addr_a = 419 	 i_addr_b = 558
# [REF][A] WRITE addr=419 bank=3 enc=0x70f time=2760
# [REF][B] WRITE addr=558 bank=2 enc=0x5fc time=2760
# i_en_a = 1 	 i_en_b = 1 	 i_we_a = 1 	 i_we_b = 1 	 i_din_a = 15 	 i_din_b = 252 	 i_addr_a = 419 	 i_addr_b = 558
# [REF][A] WRITE addr=419 bank=3 enc=0x70f time=2800
# [REF][B] WRITE addr=558 bank=2 enc=0x5fc time=2800
# i_en_a = 1 	 i_en_b = 1 	 i_we_a = 1 	 i_we_b = 1 	 i_din_a = 15 	 i_din_b = 252 	 i_addr_a = 419 	 i_addr_b = 558
# [REF][A] WRITE addr=419 bank=3 enc=0x70f time=2840
# [REF][B] WRITE addr=558 bank=2 enc=0x5fc time=2840
# i_en_a = 1 	 i_en_b = 1 	 i_we_a = 1 	 i_we_b = 1 	 i_din_a = 15 	 i_din_b = 252 	 i_addr_a = 419 	 i_addr_b = 558
# [REF][A] WRITE addr=419 bank=3 enc=0x70f time=2880
# [REF][B] WRITE addr=558 bank=2 enc=0x5fc time=2880
# i_en_a = 1 	 i_en_b = 1 	 i_we_a = 1 	 i_we_b = 1 	 i_din_a = 15 	 i_din_b = 252 	 i_addr_a = 419 	 i_addr_b = 558
# [REF][A] WRITE addr=419 bank=3 enc=0x70f time=2920
# [REF][B] WRITE addr=558 bank=2 enc=0x5fc time=2920
# i_en_a = 1 	 i_en_b = 1 	 i_we_a = 1 	 i_we_b = 1 	 i_din_a = 15 	 i_din_b = 252 	 i_addr_a = 419 	 i_addr_b = 558
# [REF][A] WRITE addr=419 bank=3 enc=0x70f time=2960
# [REF][B] WRITE addr=558 bank=2 enc=0x5fc time=2960
# i_en_a = 1 	 i_en_b = 1 	 i_we_a = 1 	 i_we_b = 1 	 i_din_a = 15 	 i_din_b = 252 	 i_addr_a = 419 	 i_addr_b = 558
# [REF][A] WRITE addr=419 bank=3 enc=0x70f time=3000
# [REF][B] WRITE addr=558 bank=2 enc=0x5fc time=3000
# i_en_a = 1 	 i_en_b = 1 	 i_we_a = 1 	 i_we_b = 1 	 i_din_a = 15 	 i_din_b = 252 	 i_addr_a = 419 	 i_addr_b = 558
# [REF][A] WRITE addr=419 bank=3 enc=0x70f time=3040
# [REF][B] WRITE addr=558 bank=2 enc=0x5fc time=3040
# i_en_a = 1 	 i_en_b = 1 	 i_we_a = 1 	 i_we_b = 1 	 i_din_a = 15 	 i_din_b = 252 	 i_addr_a = 419 	 i_addr_b = 558
# [REF][A] WRITE addr=419 bank=3 enc=0x70f time=3080
# [REF][B] WRITE addr=558 bank=2 enc=0x5fc time=3080
# i_en_a = 1 	 i_en_b = 1 	 i_we_a = 1 	 i_we_b = 1 	 i_din_a = 15 	 i_din_b = 252 	 i_addr_a = 419 	 i_addr_b = 558
# [REF][A] WRITE addr=419 bank=3 enc=0x70f time=3120
# [REF][B] WRITE addr=558 bank=2 enc=0x5fc time=3120
# i_en_a = 1 	 i_en_b = 1 	 i_we_a = 1 	 i_we_b = 1 	 i_din_a = 15 	 i_din_b = 252 	 i_addr_a = 419 	 i_addr_b = 558
# [REF][A] WRITE addr=419 bank=3 enc=0x70f time=3160
# [REF][B] WRITE addr=558 bank=2 enc=0x5fc time=3160
# i_en_a = 1 	 i_en_b = 1 	 i_we_a = 1 	 i_we_b = 1 	 i_din_a = 15 	 i_din_b = 252 	 i_addr_a = 419 	 i_addr_b = 558
# [REF][A] WRITE addr=419 bank=3 enc=0x70f time=3200
